{
  "description": "Readers",
  "type": "array",
  "items": {
    "type": "object",
    "properties": {
      "ID": {
        "type": "integer"
      },
      "FullName": {
        "type": "string"
      }
    }
  }
}